Toyota,Yaris,Azul,2019,2342
Jeep,Wrangler,Azul,2019,70000000
Hyundai,Veloster,Rojo,2019,50000000
Hyundai,Veloster,Rojo,2019,50000000
Hyundai,Veloster,Amarillo,2019,45000000
Nissan,Sentra,Azul,2019,1999999
Toyota,Corolla,Azul,2020,123231
Toyota,Corolla,Azul,2020,123231
Toyota,Corolla,Azul,2020,10000
Toyota,Yaris,Azul,2019,25453
Toyota,Yaris,Rojo,2019,4564
Toyota,Yaris,Azul,2020,123231222
